-------------------------------------------------------------------------------
Test set: hr.fer.zemris.java.gui.calc.CalcModelTest
-------------------------------------------------------------------------------
Tests run: 0, Failures: 0, Errors: 0, Skipped: 0, Time elapsed: 0.002 sec
