-------------------------------------------------------------------------------
Test set: hr.fer.oprpp1.hw04.db.QueryParserTest
-------------------------------------------------------------------------------
Tests run: 6, Failures: 0, Errors: 0, Skipped: 0, Time elapsed: 0.011 sec
